<?xml version="1.0" encoding="UTF-8" standalone="no"?>
<svg
   width="260"
   height="52"
   version="1.1"
   id="svg10"
   sodipodi:docname="page-logo.svg"
   inkscape:version="1.3 (0e150ed6c4, 2023-07-21)"
   xmlns:inkscape="http://www.inkscape.org/namespaces/inkscape"
   xmlns:sodipodi="http://sodipodi.sourceforge.net/DTD/sodipodi-0.dtd"
   xmlns="http://www.w3.org/2000/svg"
   xmlns:svg="http://www.w3.org/2000/svg">
  <defs
     id="defs14" />
  <sodipodi:namedview
     id="namedview12"
     pagecolor="#505050"
     bordercolor="#ffffff"
     borderopacity="1"
     inkscape:pageshadow="0"
     inkscape:pageopacity="0"
     inkscape:pagecheckerboard="1"
     showgrid="true"
     width="137px"
     inkscape:current-layer="svg10"
     showguides="true"
     inkscape:guide-bbox="true"
     inkscape:showpageshadow="0"
     inkscape:deskcolor="#d1d1d1">
    <inkscape:grid
       type="xygrid"
       id="grid5602"
       originx="0"
       originy="0"
       spacingy="1"
       spacingx="1"
       units="px"
       visible="true" />
    <sodipodi:guide
       position="60,37"
       orientation="0,-1"
       id="guide140"
       inkscape:locked="false" />
  </sodipodi:namedview>
  <g
     id="g2"
     transform="matrix(2.9581816,0,0,2.9581816,-1457.9339,1673.5248)"
     style="fill:#1a5fb4">
    <path
       id="path14"
       style="fill:#1a5fb4;stroke:none;stroke-width:1px;stroke-linecap:butt;stroke-linejoin:miter;stroke-opacity:1"
       d="m 1274.0527,174.37305 c -8.9018,0.13516 -16.0545,7.37651 -16.08,16.27929 l -0.07,24.89649 -24.1601,-13.27344 c -10.8639,-5.96995 -24.1565,1.86759 -24.1914,14.26367 l -0.08,28.77539 -23.9453,-13.15625 c -10.8639,-5.96995 -24.1565,1.8676 -24.1914,14.26368 l -0.1582,56.52148 c -0.048,17.02492 8.9908,32.78208 23.7109,41.33594 l 48.8672,28.39843 c 10.5555,6.13514 23.7897,-1.4805 23.7891,-13.68945 v -30.38867 l 24.4277,14.19531 c 10.5551,6.13282 23.7868,-1.48204 23.7871,-13.68945 v -26.51172 l 24.6328,14.31445 c 10.5555,6.13514 23.7897,-1.4805 23.7891,-13.68945 V 243.4707 c 0,-16.96872 -9.2415,-32.59069 -24.1133,-40.76172 l -47.9043,-26.32031 c -2.4825,-1.3639 -5.2772,-2.05852 -8.1094,-2.01562 z"
       transform="matrix(0.07369136,0,0,0.07369136,413.39034,-576.56085)" />
    <path
       d="m 517.77748,-554.37054 h 0.91385 v -2.143 h 2.09619 v -0.76606 h -2.09619 v -1.36954 h 2.31788 v -0.76606 h -3.23173 z m 3.96823,0 h 0.89168 v -2.22428 c 0,-0.48033 0.36209,-0.82025 0.85227,-0.82025 0.15026,0 0.33746,0.0271 0.41382,0.0517 v -0.82025 c -0.0813,-0.0148 -0.22169,-0.0246 -0.32022,-0.0246 -0.43352,0 -0.79561,0.24633 -0.93355,0.68478 h -0.0394 v -0.63059 h -0.86459 z m 4.26874,0.0739 c 0.88183,0 1.48778,-0.43106 1.64542,-1.08874 l -0.83256,-0.0936 c -0.1207,0.32022 -0.41629,0.48772 -0.80055,0.48772 -0.57639,0 -0.95819,-0.37934 -0.96558,-1.02716 h 2.63564 v -0.27342 c 0,-1.32767 -0.79808,-1.91145 -1.72917,-1.91145 -1.08382,0 -1.79076,0.79562 -1.79076,1.96318 0,1.18727 0.69709,1.94347 1.83756,1.94347 z m -0.9508,-2.32281 c 0.0271,-0.48278 0.38426,-0.88921 0.91631,-0.88921 0.51235,0 0.8572,0.3744 0.86213,0.88921 z m 5.06189,2.32281 c 0.88183,0 1.48778,-0.43106 1.64542,-1.08874 l -0.83256,-0.0936 c -0.1207,0.32022 -0.41628,0.48772 -0.80054,0.48772 -0.5764,0 -0.95819,-0.37934 -0.96558,-1.02716 h 2.63563 v -0.27342 c 0,-1.32767 -0.79808,-1.91145 -1.72917,-1.91145 -1.08381,0 -1.79076,0.79562 -1.79076,1.96318 0,1.18727 0.69709,1.94347 1.83756,1.94347 z m -0.9508,-2.32281 c 0.0271,-0.48278 0.38426,-0.88921 0.91631,-0.88921 0.51235,0 0.8572,0.3744 0.86213,0.88921 z m 4.79094,2.31542 c 0.65029,0 0.94341,-0.38672 1.08381,-0.6626 h 0.0542 v 0.5961 h 0.8769 v -5.04466 h -0.89414 v 1.88682 h -0.037 c -0.13548,-0.27342 -0.41382,-0.67492 -1.08135,-0.67492 -0.87444,0 -1.56167,0.68477 -1.56167,1.94594 0,1.24638 0.66753,1.95332 1.55921,1.95332 z m 0.24878,-0.73157 c -0.58871,0 -0.89907,-0.51728 -0.89907,-1.22668 0,-0.70448 0.30544,-1.20944 0.89907,-1.20944 0.57393,0 0.88922,0.4754 0.88922,1.20944 0,0.73404 -0.32022,1.22668 -0.88922,1.22668 z m 4.39437,0.73896 c 0.88183,0 1.48778,-0.43106 1.64543,-1.08874 l -0.83257,-0.0936 c -0.1207,0.32022 -0.41628,0.48772 -0.80054,0.48772 -0.57639,0 -0.95819,-0.37934 -0.96558,-1.02716 h 2.63564 v -0.27342 c 0,-1.32767 -0.79808,-1.91145 -1.72918,-1.91145 -1.08381,0 -1.79075,0.79562 -1.79075,1.96318 0,1.18727 0.69709,1.94347 1.83755,1.94347 z m -0.9508,-2.32281 c 0.0271,-0.48278 0.38426,-0.88921 0.91632,-0.88921 0.51235,0 0.85719,0.3744 0.86212,0.88921 z m 6.37725,-0.53451 c -0.12316,-0.64044 -0.63551,-1.04933 -1.52227,-1.04933 -0.91138,0 -1.53211,0.4483 -1.52965,1.14786 -0.002,0.55176 0.33746,0.91631 1.06411,1.06657 l 0.64536,0.13547 c 0.34731,0.0764 0.50988,0.21677 0.50988,0.43106 0,0.25864 -0.2808,0.45324 -0.70447,0.45324 -0.4089,0 -0.67492,-0.17736 -0.75128,-0.51728 l -0.86952,0.0838 c 0.11085,0.69463 0.69463,1.10598 1.62326,1.10598 0.94587,0 1.6134,-0.49018 1.61586,-1.20697 -0.002,-0.53944 -0.34977,-0.86951 -1.0641,-1.0247 l -0.64536,-0.13794 c -0.38426,-0.0862 -0.53698,-0.21922 -0.53452,-0.43845 -0.002,-0.25617 0.28081,-0.43352 0.65275,-0.43352 0.41136,0 0.62812,0.22415 0.69709,0.47293 z m 0.81778,2.78343 h 0.89168 v -1.27102 l 0.32515,-0.34731 1.15771,1.61833 h 1.06657 l -1.55183,-2.15039 1.46561,-1.63311 h -1.04193 l -1.3597,1.51981 h -0.0616 v -2.78097 h -0.89168 z m 5.83534,-3.7835 h -0.74635 v -0.90646 h -0.89168 v 0.90646 h -0.53698 v 0.6897 h 0.53698 v 2.10359 c -0.005,0.71186 0.51235,1.06164 1.18234,1.04193 0.25371,-0.007 0.4286,-0.0566 0.52466,-0.0887 l -0.15025,-0.69709 c -0.0493,0.0123 -0.15026,0.0345 -0.2611,0.0345 -0.22415,0 -0.40397,-0.0788 -0.40397,-0.43845 v -1.95579 h 0.74635 z m 2.3573,3.85739 c 1.10845,0 1.81293,-0.78084 1.81293,-1.95086 0,-1.17249 -0.70448,-1.95579 -1.81293,-1.95579 -1.10844,0 -1.81292,0.7833 -1.81292,1.95579 0,1.17002 0.70448,1.95086 1.81292,1.95086 z m 0.005,-0.71433 c -0.61334,0 -0.91385,-0.54683 -0.91385,-1.23899 0,-0.69217 0.30051,-1.24639 0.91385,-1.24639 0.60349,0 0.904,0.55422 0.904,1.24639 0,0.69216 -0.30051,1.23899 -0.904,1.23899 z m 2.56173,2.05924 h 0.89168 v -2.0149 h 0.0369 c 0.14041,0.27588 0.43353,0.6626 1.08382,0.6626 0.89168,0 1.55921,-0.70694 1.55921,-1.95332 0,-1.26117 -0.68724,-1.94594 -1.56168,-1.94594 -0.66753,0 -0.94587,0.4015 -1.08135,0.67492 h -0.0517 v -0.62566 h -0.87691 z m 0.87444,-3.31055 c 0,-0.73404 0.31529,-1.20944 0.88922,-1.20944 0.59363,0 0.89907,0.50496 0.89907,1.20944 0,0.7094 -0.31036,1.22668 -0.89907,1.22668 -0.569,0 -0.88922,-0.49264 -0.88922,-1.22668 z m 7.9611,-1.76612 h 0.87937 c -0.0172,-0.85227 -0.74389,-1.45576 -1.81785,-1.45576 -1.05918,0 -1.8548,0.5961 -1.85234,1.48778 0,0.72418 0.51481,1.14047 1.34492,1.35477 l 0.57392,0.14779 c 0.54437,0.13794 0.904,0.3079 0.90646,0.69955 -0.002,0.43106 -0.41135,0.71926 -1.00745,0.71926 -0.57146,0 -1.01484,-0.25618 -1.05179,-0.78577 h -0.89907 c 0.0369,1.00253 0.7833,1.56661 1.95825,1.56661 1.20944,0 1.91145,-0.60349 1.91392,-1.49271 -0.002,-0.87444 -0.72419,-1.27348 -1.48286,-1.45329 l -0.47293,-0.11824 c -0.41382,-0.0985 -0.86213,-0.27341 -0.8572,-0.69462 0.002,-0.37934 0.34239,-0.65768 0.91385,-0.65768 0.54437,0 0.904,0.25371 0.9508,0.68231 z m 3.47066,3.65787 c 1.53704,0 2.44843,-0.9508 2.44843,-2.52726 0,-1.57153 -0.91139,-2.5174 -2.41395,-2.5174 h -1.74395 v 5.04466 z m -0.79562,-0.79069 v -3.46328 h 0.77838 c 1.02469,0 1.55921,0.57147 1.55921,1.72671 0,1.16017 -0.53452,1.73657 -1.58631,1.73657 z m 4.1111,0.79069 h 0.91385 v -1.50256 l 0.55915,-0.66014 1.50502,2.1627 h 1.09859 l -1.9681,-2.78097 1.95086,-2.26369 h -1.11584 l -1.9681,2.31788 h -0.0616 v -2.31788 h -0.91385 z"
       id="text16"
       style="font-weight:600;font-size:6.9364px;line-height:1.25;font-family:Inter;-inkscape-font-specification:'Inter, Semi-Bold';letter-spacing:0px;word-spacing:0px;white-space:pre;fill:#1a5fb4;stroke-width:0.371591"
       aria-label="Freedesktop SDK" />
  </g>
  <g
     id="g3"
     transform="matrix(2.9581816,0,0,2.9581816,-1457.9339,1672.1861)"
     style="fill:#ffffff">
    <path
       id="path1"
       style="fill:#ffffff;stroke:none;stroke-width:1px;stroke-linecap:butt;stroke-linejoin:miter;stroke-opacity:1"
       d="m 1274.0527,174.37305 c -8.9018,0.13516 -16.0545,7.37651 -16.08,16.27929 l -0.07,24.89649 -24.1601,-13.27344 c -10.8639,-5.96995 -24.1565,1.86759 -24.1914,14.26367 l -0.08,28.77539 -23.9453,-13.15625 c -10.8639,-5.96995 -24.1565,1.8676 -24.1914,14.26368 l -0.1582,56.52148 c -0.048,17.02492 8.9908,32.78208 23.7109,41.33594 l 48.8672,28.39843 c 10.5555,6.13514 23.7897,-1.4805 23.7891,-13.68945 v -30.38867 l 24.4277,14.19531 c 10.5551,6.13282 23.7868,-1.48204 23.7871,-13.68945 v -26.51172 l 24.6328,14.31445 c 10.5555,6.13514 23.7897,-1.4805 23.7891,-13.68945 V 243.4707 c 0,-16.96872 -9.2415,-32.59069 -24.1133,-40.76172 l -47.9043,-26.32031 c -2.4825,-1.3639 -5.2772,-2.05852 -8.1094,-2.01562 z"
       transform="matrix(0.07369136,0,0,0.07369136,413.39034,-576.56085)" />
    <path
       d="m 517.77748,-554.37054 h 0.91385 v -2.143 h 2.09619 v -0.76606 h -2.09619 v -1.36954 h 2.31788 v -0.76606 h -3.23173 z m 3.96823,0 h 0.89168 v -2.22428 c 0,-0.48033 0.36209,-0.82025 0.85227,-0.82025 0.15026,0 0.33746,0.0271 0.41382,0.0517 v -0.82025 c -0.0813,-0.0148 -0.22169,-0.0246 -0.32022,-0.0246 -0.43352,0 -0.79561,0.24633 -0.93355,0.68478 h -0.0394 v -0.63059 h -0.86459 z m 4.26874,0.0739 c 0.88183,0 1.48778,-0.43106 1.64542,-1.08874 l -0.83256,-0.0936 c -0.1207,0.32022 -0.41629,0.48772 -0.80055,0.48772 -0.57639,0 -0.95819,-0.37934 -0.96558,-1.02716 h 2.63564 v -0.27342 c 0,-1.32767 -0.79808,-1.91145 -1.72917,-1.91145 -1.08382,0 -1.79076,0.79562 -1.79076,1.96318 0,1.18727 0.69709,1.94347 1.83756,1.94347 z m -0.9508,-2.32281 c 0.0271,-0.48278 0.38426,-0.88921 0.91631,-0.88921 0.51235,0 0.8572,0.3744 0.86213,0.88921 z m 5.06189,2.32281 c 0.88183,0 1.48778,-0.43106 1.64542,-1.08874 l -0.83256,-0.0936 c -0.1207,0.32022 -0.41628,0.48772 -0.80054,0.48772 -0.5764,0 -0.95819,-0.37934 -0.96558,-1.02716 h 2.63563 v -0.27342 c 0,-1.32767 -0.79808,-1.91145 -1.72917,-1.91145 -1.08381,0 -1.79076,0.79562 -1.79076,1.96318 0,1.18727 0.69709,1.94347 1.83756,1.94347 z m -0.9508,-2.32281 c 0.0271,-0.48278 0.38426,-0.88921 0.91631,-0.88921 0.51235,0 0.8572,0.3744 0.86213,0.88921 z m 4.79094,2.31542 c 0.65029,0 0.94341,-0.38672 1.08381,-0.6626 h 0.0542 v 0.5961 h 0.8769 v -5.04466 h -0.89414 v 1.88682 h -0.037 c -0.13548,-0.27342 -0.41382,-0.67492 -1.08135,-0.67492 -0.87444,0 -1.56167,0.68477 -1.56167,1.94594 0,1.24638 0.66753,1.95332 1.55921,1.95332 z m 0.24878,-0.73157 c -0.58871,0 -0.89907,-0.51728 -0.89907,-1.22668 0,-0.70448 0.30544,-1.20944 0.89907,-1.20944 0.57393,0 0.88922,0.4754 0.88922,1.20944 0,0.73404 -0.32022,1.22668 -0.88922,1.22668 z m 4.39437,0.73896 c 0.88183,0 1.48778,-0.43106 1.64543,-1.08874 l -0.83257,-0.0936 c -0.1207,0.32022 -0.41628,0.48772 -0.80054,0.48772 -0.57639,0 -0.95819,-0.37934 -0.96558,-1.02716 h 2.63564 v -0.27342 c 0,-1.32767 -0.79808,-1.91145 -1.72918,-1.91145 -1.08381,0 -1.79075,0.79562 -1.79075,1.96318 0,1.18727 0.69709,1.94347 1.83755,1.94347 z m -0.9508,-2.32281 c 0.0271,-0.48278 0.38426,-0.88921 0.91632,-0.88921 0.51235,0 0.85719,0.3744 0.86212,0.88921 z m 6.37725,-0.53451 c -0.12316,-0.64044 -0.63551,-1.04933 -1.52227,-1.04933 -0.91138,0 -1.53211,0.4483 -1.52965,1.14786 -0.002,0.55176 0.33746,0.91631 1.06411,1.06657 l 0.64536,0.13547 c 0.34731,0.0764 0.50988,0.21677 0.50988,0.43106 0,0.25864 -0.2808,0.45324 -0.70447,0.45324 -0.4089,0 -0.67492,-0.17736 -0.75128,-0.51728 l -0.86952,0.0838 c 0.11085,0.69463 0.69463,1.10598 1.62326,1.10598 0.94587,0 1.6134,-0.49018 1.61586,-1.20697 -0.002,-0.53944 -0.34977,-0.86951 -1.0641,-1.0247 l -0.64536,-0.13794 c -0.38426,-0.0862 -0.53698,-0.21922 -0.53452,-0.43845 -0.002,-0.25617 0.28081,-0.43352 0.65275,-0.43352 0.41136,0 0.62812,0.22415 0.69709,0.47293 z m 0.81778,2.78343 h 0.89168 v -1.27102 l 0.32515,-0.34731 1.15771,1.61833 h 1.06657 l -1.55183,-2.15039 1.46561,-1.63311 h -1.04193 l -1.3597,1.51981 h -0.0616 v -2.78097 h -0.89168 z m 5.83534,-3.7835 h -0.74635 v -0.90646 h -0.89168 v 0.90646 h -0.53698 v 0.6897 h 0.53698 v 2.10359 c -0.005,0.71186 0.51235,1.06164 1.18234,1.04193 0.25371,-0.007 0.4286,-0.0566 0.52466,-0.0887 l -0.15025,-0.69709 c -0.0493,0.0123 -0.15026,0.0345 -0.2611,0.0345 -0.22415,0 -0.40397,-0.0788 -0.40397,-0.43845 v -1.95579 h 0.74635 z m 2.3573,3.85739 c 1.10845,0 1.81293,-0.78084 1.81293,-1.95086 0,-1.17249 -0.70448,-1.95579 -1.81293,-1.95579 -1.10844,0 -1.81292,0.7833 -1.81292,1.95579 0,1.17002 0.70448,1.95086 1.81292,1.95086 z m 0.005,-0.71433 c -0.61334,0 -0.91385,-0.54683 -0.91385,-1.23899 0,-0.69217 0.30051,-1.24639 0.91385,-1.24639 0.60349,0 0.904,0.55422 0.904,1.24639 0,0.69216 -0.30051,1.23899 -0.904,1.23899 z m 2.56173,2.05924 h 0.89168 v -2.0149 h 0.0369 c 0.14041,0.27588 0.43353,0.6626 1.08382,0.6626 0.89168,0 1.55921,-0.70694 1.55921,-1.95332 0,-1.26117 -0.68724,-1.94594 -1.56168,-1.94594 -0.66753,0 -0.94587,0.4015 -1.08135,0.67492 h -0.0517 v -0.62566 h -0.87691 z m 0.87444,-3.31055 c 0,-0.73404 0.31529,-1.20944 0.88922,-1.20944 0.59363,0 0.89907,0.50496 0.89907,1.20944 0,0.7094 -0.31036,1.22668 -0.89907,1.22668 -0.569,0 -0.88922,-0.49264 -0.88922,-1.22668 z m 7.9611,-1.76612 h 0.87937 c -0.0172,-0.85227 -0.74389,-1.45576 -1.81785,-1.45576 -1.05918,0 -1.8548,0.5961 -1.85234,1.48778 0,0.72418 0.51481,1.14047 1.34492,1.35477 l 0.57392,0.14779 c 0.54437,0.13794 0.904,0.3079 0.90646,0.69955 -0.002,0.43106 -0.41135,0.71926 -1.00745,0.71926 -0.57146,0 -1.01484,-0.25618 -1.05179,-0.78577 h -0.89907 c 0.0369,1.00253 0.7833,1.56661 1.95825,1.56661 1.20944,0 1.91145,-0.60349 1.91392,-1.49271 -0.002,-0.87444 -0.72419,-1.27348 -1.48286,-1.45329 l -0.47293,-0.11824 c -0.41382,-0.0985 -0.86213,-0.27341 -0.8572,-0.69462 0.002,-0.37934 0.34239,-0.65768 0.91385,-0.65768 0.54437,0 0.904,0.25371 0.9508,0.68231 z m 3.47066,3.65787 c 1.53704,0 2.44843,-0.9508 2.44843,-2.52726 0,-1.57153 -0.91139,-2.5174 -2.41395,-2.5174 h -1.74395 v 5.04466 z m -0.79562,-0.79069 v -3.46328 h 0.77838 c 1.02469,0 1.55921,0.57147 1.55921,1.72671 0,1.16017 -0.53452,1.73657 -1.58631,1.73657 z m 4.1111,0.79069 h 0.91385 v -1.50256 l 0.55915,-0.66014 1.50502,2.1627 h 1.09859 l -1.9681,-2.78097 1.95086,-2.26369 h -1.11584 l -1.9681,2.31788 h -0.0616 v -2.31788 h -0.91385 z"
       id="path2"
       style="font-weight:600;font-size:6.9364px;line-height:1.25;font-family:Inter;-inkscape-font-specification:'Inter, Semi-Bold';letter-spacing:0px;word-spacing:0px;white-space:pre;fill:#ffffff;stroke-width:0.371591"
       aria-label="Freedesktop SDK" />
  </g>
</svg>
